ins/COUNTER/SS_TEST/par/simulation/qsim/SS_TEST.msim.vcd
$comment
	File created using the following command:
		vcd file SS_TEST.msim.vcd -direction
$end
$date
	Thu Nov 04 12:08:52 2021
$end
$version
	ModelSim Version 10.1d
$end
$timescale
	1ps
$end
$scope module SS_TEST_vlg_vec_tst $end
$var reg 1 ! clk $end
$var reg 1 " load $end
$var reg 1 # rst_n $end
$var wire 1 $ seq [15] $end
$var wire 1 % seq [14] $end
$var wire 1 & seq [13] $end
$var wire 1 ' seq [12] $end
$var wire 1 ( seq [11] $end
$var wire 1 ) seq [10] $end
$var wire 1 * seq [9] $end
$var wire 1 + seq [8] $end
$var wire 1 , seq [7] $end
$var wire 1 - seq [6] $end
$var wire 1 . seq [5] $end
$var wire 1 / seq [4] $end
$var wire 1 0 seq [3] $end
$var wire 1 1 seq [2] $end
$var wire 1 2 seq [1] $end
$var wire 1 3 seq [0] $end
$var wire 1 4 seq_jug $end
$var wire 1 5 state [3] $end
$var wire 1 6 state [2] $end
$var wire 1 7 state [1] $end
$var wire 1 8 state [0] $end
$var wire 1 9 sampler $end
$scope module i1 $end
$var wire 1 : gnd $end
$var wire 1 ; vcc $end
$var wire 1 < unknown $end
$var tri1 1 = devclrn $end
$var tri1 1 > devpor $end
$var tri1 1 ? devoe $end
$var wire 1 @ seq_jug~output_o $end
$var wire 1 A seq[0]~output_o $end
$var wire 1 B seq[1]~output_o $end
$var wire 1 C seq[2]~output_o $end
$var wire 1 D seq[3]~output_o $end
$var wire 1 E seq[4]~output_o $end
$var wire 1 F seq[5]~output_o $end
$var wire 1 G seq[6]~output_o $end
$var wire 1 H seq[7]~output_o $end
$var wire 1 I seq[8]~output_o $end
$var wire 1 J seq[9]~output_o $end
$var wire 1 K seq[10]~output_o $end
$var wire 1 L seq[11]~output_o $end
$var wire 1 M seq[12]~output_o $end
$var wire 1 N seq[13]~output_o $end
$var wire 1 O seq[14]~output_o $end
$var wire 1 P seq[15]~output_o $end
$var wire 1 Q state[0]~output_o $end
$var wire 1 R state[1]~output_o $end
$var wire 1 S state[2]~output_o $end
$var wire 1 T state[3]~output_o $end
$var wire 1 U clk~input_o $end
$var wire 1 V clk~inputclkctrl_outclk $end
$var wire 1 W load~input_o $end
$var wire 1 X U1|seq~1_combout $end
$var wire 1 Y rst_n~input_o $end
$var wire 1 Z rst_n~inputclkctrl_outclk $end
$var wire 1 [ U1|seq~2_combout $end
$var wire 1 \ U1|seq~3_combout $end
$var wire 1 ] U1|seq~4_combout $end
$var wire 1 ^ U1|seq~5_combout $end
$var wire 1 _ U1|seq~6_combout $end
$var wire 1 ` U1|seq~7_combout $end
$var wire 1 a U1|seq~8_combout $end
$var wire 1 b U1|seq~9_combout $end
$var wire 1 c U1|seq~10_combout $end
$var wire 1 d U1|seq~11_combout $end
$var wire 1 e U1|seq~12_combout $end
$var wire 1 f U1|seq~13_combout $end
$var wire 1 g U1|seq~14_combout $end
$var wire 1 h U1|seq~15_combout $end
$var wire 1 i U1|seq~0_combout $end
$var wire 1 j U2|Mux1~0_combout $end
$var wire 1 k U2|Mux0~0_combout $end
$var wire 1 l U2|Mux2~0_combout $end
$var wire 1 m U2|Equal0~0_combout $end
$var wire 1 n U1|Led [4] $end
$var wire 1 o U1|Led [3] $end
$var wire 1 p U1|Led [2] $end
$var wire 1 q U1|Led [1] $end
$var wire 1 r U1|Led [0] $end
$var wire 1 s U1|seq [15] $end
$var wire 1 t U1|seq [14] $end
$var wire 1 u U1|seq [13] $end
$var wire 1 v U1|seq [12] $end
$var wire 1 w U1|seq [11] $end
$var wire 1 x U1|seq [10] $end
$var wire 1 y U1|seq [9] $end
$var wire 1 z U1|seq [8] $end
$var wire 1 { U1|seq [7] $end
$var wire 1 | U1|seq [6] $end
$var wire 1 } U1|seq [5] $end
$var wire 1 ~ U1|seq [4] $end
$var wire 1 !! U1|seq [3] $end
$var wire 1 "! U1|seq [2] $end
$var wire 1 #! U1|seq [1] $end
$var wire 1 $! U1|seq [0] $end
$var wire 1 %! U2|state [2] $end
$var wire 1 &! U2|state [1] $end
$var wire 1 '! U2|state [0] $end
$upscope $end
$upscope $end
$enddefinitions $end
#0
$dumpvars
0!
1"
1#
03
02
01
00
0/
0.
0-
0,
0+
0*
0)
0(
0'
0&
0%
0$
04
08
07
06
05
x9
0:
1;
x<
1=
1>
1?
0@
0A
0B
0C
0D
0E
0F
0G
0H
0I
0J
0K
0L
0M
0N
0O
0P
0Q
0R
0S
0T
0U
0V
1W
0X
1Y
1Z
1[
0\
1]
0^
0_
1`
1a
0b
1c
1d
0e
0f
0g
0h
1i
0j
0k
0l
0m
0r
0q
0p
0o
0n
z$!
z#!
z"!
z!!
z~
0}
0|
0{
0z
0y
0x
0w
0v
0u
0t
0s
0'!
0&!
0%!
$end
#10000
1!
0"
1U
0W
1V
09
0i
0d
0c
0a
0`
0]
0[
1r
1w
1x
1z
1{
1n
1p
1l
1X
1e
1d
1b
1a
1^
1\
1A
1L
1K
1I
1H
1E
1C
13
1(
1)
1+
1,
1/
11
#20000
0!
0U
0V
19
#30000
1!
1U
1V
09
1'!
0r
1v
0x
1y
0{
1}
0n
1o
0p
1q
0l
1j
0X
1f
0d
1c
0a
1_
0^
1]
0\
1[
1Q
0A
1M
0K
1J
0H
1F
0E
1D
0C
1B
18
03
1'
0)
1*
0,
1.
0/
10
01
12
#40000
0!
0U
0V
19
#50000
1!
1U
1V
09
0'!
1&!
1u
0w
1x
0z
1|
0}
1n
0o
1p
0q
0j
1g
0e
1d
0b
1`
0_
1^
0]
1\
0[
0Q
1R
1N
0L
1K
0I
1G
0F
1E
0D
1C
0B
08
17
1&
0(
1)
0+
1-
0.
1/
00
11
02
#60000
0!
0U
0V
19
#70000
1!
1U
1V
09
0&!
1t
0v
1w
0y
1{
0|
1}
0n
1o
0p
1h
0f
1e
0c
1a
0`
1_
0^
1]
0\
0R
1O
0M
1L
0J
1H
0G
1F
0E
1D
0C
07
1%
0'
1(
0*
1,
0-
1.
0/
10
01
#80000
0!
0U
0V
19
#90000
1!
1U
1V
09
1s
0u
1v
0x
1z
0{
1|
0}
1n
0o
1i
0g
1f
0d
1b
0a
1`
0_
1^
0]
1P
0N
1M
0K
1I
0H
1G
0F
1E
0D
1$
0&
1'
0)
1+
0,
1-
0.
1/
00
#100000
0!
0U
0V
19
#110000
1!
1U
1V
09
1r
0t
1u
0w
1y
0z
1{
0|
1}
0n
1l
1X
0h
1g
0e
1c
0b
1a
0`
1_
0^
1A
0O
1N
0L
1J
0I
1H
0G
1F
0E
13
0%
1&
0(
1*
0+
1,
0-
1.
0/
#120000
0!
0U
0V
19
#130000
1!
1U
1V
09
1'!
0s
1t
0v
1x
0y
1z
0{
1|
0}
1q
0i
1h
0f
1d
0c
1b
0a
1`
0_
1[
1Q
0P
1O
0M
1K
0J
1I
0H
1G
0F
1B
18
0$
1%
0'
1)
0*
1+
0,
1-
0.
12
#140000
0!
0U
0V
19
#150000
1!
1U
1V
09
0r
1s
0u
1w
0x
1y
0z
1{
0|
1p
0l
1j
0X
1i
0g
1e
0d
1c
0b
1a
0`
1\
0A
1P
0N
1L
0K
1J
0I
1H
0G
1C
03
1$
0&
1(
0)
1*
0+
1,
0-
11
#160000
0!
0U
0V
19
#170000
1!
1U
1V
09
0'!
1&!
1r
0t
1v
0w
1x
0y
1z
0{
1o
0q
1l
1X
0h
1f
0e
1d
0c
1b
0a
1]
0[
0Q
1R
1A
0O
1M
0L
1K
0J
1I
0H
1D
0B
08
17
13
0%
1'
0(
1)
0*
1+
0,
10
02
#180000
0!
0U
0V
19
#190000
1!
1U
1V
09
1'!
0s
1u
0v
1w
0x
1y
0z
1n
0p
1q
0l
1k
0j
0i
1g
0f
1e
0d
1c
0b
1^
0\
1[
1Q
0P
1N
0M
1L
0K
1J
0I
1E
0C
1B
18
0$
1&
0'
1(
0)
1*
0+
1/
01
12
#200000
0!
0U
0V
19
#210000
1!
1U
1V
09
0'!
1%!
0&!
0r
1t
0u
1v
0w
1x
0y
1}
0o
1p
1l
0X
1h
0g
1f
0e
1d
0c
1_
0]
1\
0Q
1S
0R
0A
1O
0N
1M
0L
1K
0J
1F
0D
1C
08
16
07
03
1%
0&
1'
0(
1)
0*
1.
00
11
#220000
0!
0U
0V
19
#230000
1!
1U
1V
09
1'!
1s
0t
1u
0v
1w
0x
1|
0n
1o
0q
0l
0k
1i
0h
1g
0f
1e
0d
1`
0^
1]
0[
1Q
1P
0O
1N
0M
1L
0K
1G
0E
1D
0B
18
1$
0%
1&
0'
1(
0)
1-
0/
10
02
1m
1@
14
#240000
0!
0U
0V
19
#250000
1!
1U
1V
09
0'!
0%!
1r
0s
1t
0u
1v
0w
1{
0}
1n
0p
1l
1X
0i
1h
0g
1f
0e
1a
0_
1^
0\
0Q
0S
1A
0P
1O
0N
1M
0L
1H
0F
1E
0C
08
06
13
0$
1%
0&
1'
0(
1,
0.
1/
01
0m
0@
04
#260000
0!
0U
0V
19
#270000
1!
1U
1V
09
1'!
0r
1s
0t
1u
0v
1z
0|
1}
0o
1q
0l
1j
0X
1i
0h
1g
0f
1b
0`
1_
0]
1[
1Q
0A
1P
0O
1N
0M
1I
0G
1F
0D
1B
18
03
1$
0%
1&
0'
1+
0-
1.
00
12
#280000
0!
0U
0V
19
#290000
1!
1U
1V
09
0'!
1&!
1r
0s
1t
0u
1y
0{
1|
0n
1p
0q
1l
1X
0i
1h
0g
1c
0a
1`
0^
1\
0[
0Q
1R
1A
0P
1O
0N
1J
0H
1G
0E
1C
0B
08
17
13
0$
1%
0&
1*
0,
1-
0/
11
02
#300000
0!
0U
0V
19
#310000
1!
1U
1V
09
1'!
0r
1s
0t
1x
0z
1{
0}
1o
0p
1q
0l
0X
1i
0h
1d
0b
1a
0_
1]
0\
1[
1Q
0A
1P
0O
1K
0I
1H
0F
1D
0C
1B
18
03
1$
0%
1)
0+
1,
0.
10
01
12
#320000
0!
0U
0V
19
#330000
1!
1U
1V
09
0'!
1r
0s
1w
0y
1z
0|
1n
0o
1p
0q
1l
1X
0i
1e
0c
1b
0`
1^
0]
1\
0[
0Q
1A
0P
1L
0J
1I
0G
1E
0D
1C
0B
08
13
0$
1(
0*
1+
0-
1/
00
11
02
#340000
0!
0U
0V
19
#350000
1!
1U
1V
09
1'!
0r
1v
0x
1y
0{
1}
0n
1o
0p
1q
0l
0X
1f
0d
1c
0a
1_
0^
1]
0\
1[
1Q
0A
1M
0K
1J
0H
1F
0E
1D
0C
1B
18
03
1'
0)
1*
0,
1.
0/
10
01
12
#360000
0!
0U
0V
19
#370000
1!
1U
1V
09
0'!
1u
0w
1x
0z
1|
0}
1n
0o
1p
0q
0j
1g
0e
1d
0b
1`
0_
1^
0]
1\
0[
0Q
1N
0L
1K
0I
1G
0F
1E
0D
1C
0B
08
1&
0(
1)
0+
1-
0.
1/
00
11
02
#380000
0!
0U
0V
19
#390000
1!
1U
1V
09
0&!
1t
0v
1w
0y
1{
0|
1}
0n
1o
0p
1h
0f
1e
0c
1a
0`
1_
0^
1]
0\
0R
1O
0M
1L
0J
1H
0G
1F
0E
1D
0C
07
1%
0'
1(
0*
1,
0-
1.
0/
10
01
#400000
0!
0U
0V
19
#410000
1!
1U
1V
09
1s
0u
1v
0x
1z
0{
1|
0}
1n
0o
1i
0g
1f
0d
1b
0a
1`
0_
1^
0]
1P
0N
1M
0K
1I
0H
1G
0F
1E
0D
1$
0&
1'
0)
1+
0,
1-
0.
1/
00
#420000
0!
0U
0V
19
#430000
1!
1U
1V
09
1r
0t
1u
0w
1y
0z
1{
0|
1}
0n
1l
1X
0h
1g
0e
1c
0b
1a
0`
1_
0^
1A
0O
1N
0L
1J
0I
1H
0G
1F
0E
13
0%
1&
0(
1*
0+
1,
0-
1.
0/
#440000
0!
0U
0V
19
#450000
1!
1U
1V
09
1'!
0s
1t
0v
1x
0y
1z
0{
1|
0}
1q
0i
1h
0f
1d
0c
1b
0a
1`
0_
1[
1Q
0P
1O
0M
1K
0J
1I
0H
1G
0F
1B
18
0$
1%
0'
1)
0*
1+
0,
1-
0.
12
#460000
0!
0U
0V
19
#470000
1!
1U
1V
09
0r
1s
0u
1w
0x
1y
0z
1{
0|
1p
0l
1j
0X
1i
0g
1e
0d
1c
0b
1a
0`
1\
0A
1P
0N
1L
0K
1J
0I
1H
0G
1C
03
1$
0&
1(
0)
1*
0+
1,
0-
11
#480000
0!
0U
0V
19
#490000
1!
1U
1V
09
0'!
1&!
1r
0t
1v
0w
1x
0y
1z
0{
1o
0q
1l
1X
0h
1f
0e
1d
0c
1b
0a
1]
0[
0Q
1R
1A
0O
1M
0L
1K
0J
1I
0H
1D
0B
08
17
13
0%
1'
0(
1)
0*
1+
0,
10
02
#500000
0!
0U
0V
19
#510000
1!
1U
1V
09
1'!
0s
1u
0v
1w
0x
1y
0z
1n
0p
1q
0l
1k
0j
0i
1g
0f
1e
0d
1c
0b
1^
0\
1[
1Q
0P
1N
0M
1L
0K
1J
0I
1E
0C
1B
18
0$
1&
0'
1(
0)
1*
0+
1/
01
12
#520000
0!
0U
0V
19
#530000
1!
1U
1V
09
0'!
1%!
0&!
0r
1t
0u
1v
0w
1x
0y
1}
0o
1p
1l
0X
1h
0g
1f
0e
1d
0c
1_
0]
1\
0Q
1S
0R
0A
1O
0N
1M
0L
1K
0J
1F
0D
1C
08
16
07
03
1%
0&
1'
0(
1)
0*
1.
00
11
#540000
0!
0U
0V
19
#550000
1!
1U
1V
09
1'!
1s
0t
1u
0v
1w
0x
1|
0n
1o
0q
0l
0k
1i
0h
1g
0f
1e
0d
1`
0^
1]
0[
1Q
1P
0O
1N
0M
1L
0K
1G
0E
1D
0B
18
1$
0%
1&
0'
1(
0)
1-
0/
10
02
1m
1@
14
#560000
0!
0U
0V
19
#570000
1!
1U
1V
09
0'!
0%!
1r
0s
1t
0u
1v
0w
1{
0}
1n
0p
1l
1X
0i
1h
0g
1f
0e
1a
0_
1^
0\
0Q
0S
1A
0P
1O
0N
1M
0L
1H
0F
1E
0C
08
06
13
0$
1%
0&
1'
0(
1,
0.
1/
01
0m
0@
04
#580000
0!
0U
0V
19
#590000
1!
1U
1V
09
1'!
0r
1s
0t
1u
0v
1z
0|
1}
0o
1q
0l
1j
0X
1i
0h
1g
0f
1b
0`
1_
0]
1[
1Q
0A
1P
0O
1N
0M
1I
0G
1F
0D
1B
18
03
1$
0%
1&
0'
1+
0-
1.
00
12
#600000
0!
0U
0V
19
#610000
1!
1U
1V
09
0'!
1&!
1r
0s
1t
0u
1y
0{
1|
0n
1p
0q
1l
1X
0i
1h
0g
1c
0a
1`
0^
1\
0[
0Q
1R
1A
0P
1O
0N
1J
0H
1G
0E
1C
0B
08
17
13
0$
1%
0&
1*
0,
1-
0/
11
02
#620000
0!
0U
0V
19
#630000
1!
1U
1V
09
1'!
0r
1s
0t
1x
0z
1{
0}
1o
0p
1q
0l
0X
1i
0h
1d
0b
1a
0_
1]
0\
1[
1Q
0A
1P
0O
1K
0I
1H
0F
1D
0C
1B
18
03
1$
0%
1)
0+
1,
0.
10
01
12
#640000
0!
0U
0V
19
#650000
1!
1U
1V
09
0'!
1r
0s
1w
0y
1z
0|
1n
0o
1p
0q
1l
1X
0i
1e
0c
1b
0`
1^
0]
1\
0[
0Q
1A
0P
1L
0J
1I
0G
1E
0D
1C
0B
08
13
0$
1(
0*
1+
0-
1/
00
11
02
#660000
0!
0U
0V
19
#670000
1!
1U
1V
09
1'!
0r
1v
0x
1y
0{
1}
0n
1o
0p
1q
0l
0X
1f
0d
1c
0a
1_
0^
1]
0\
1[
1Q
0A
1M
0K
1J
0H
1F
0E
1D
0C
1B
18
03
1'
0)
1*
0,
1.
0/
10
01
12
#680000
0!
0U
0V
19
#690000
1!
1U
1V
09
0'!
1u
0w
1x
0z
1|
0}
1n
0o
1p
0q
0j
1g
0e
1d
0b
1`
0_
1^
0]
1\
0[
0Q
1N
0L
1K
0I
1G
0F
1E
0D
1C
0B
08
1&
0(
1)
0+
1-
0.
1/
00
11
02
#700000
0!
0U
0V
19
#710000
1!
1U
1V
09
0&!
1t
0v
1w
0y
1{
0|
1}
0n
1o
0p
1h
0f
1e
0c
1a
0`
1_
0^
1]
0\
0R
1O
0M
1L
0J
1H
0G
1F
0E
1D
0C
07
1%
0'
1(
0*
1,
0-
1.
0/
10
01
#720000
0!
0U
0V
19
#730000
1!
1U
1V
09
1s
0u
1v
0x
1z
0{
1|
0}
1n
0o
1i
0g
1f
0d
1b
0a
1`
0_
1^
0]
1P
0N
1M
0K
1I
0H
1G
0F
1E
0D
1$
0&
1'
0)
1+
0,
1-
0.
1/
00
#740000
0!
0U
0V
19
#750000
1!
1U
1V
09
1r
0t
1u
0w
1y
0z
1{
0|
1}
0n
1l
1X
0h
1g
0e
1c
0b
1a
0`
1_
0^
1A
0O
1N
0L
1J
0I
1H
0G
1F
0E
13
0%
1&
0(
1*
0+
1,
0-
1.
0/
#760000
0!
0U
0V
19
#770000
1!
1U
1V
09
1'!
0s
1t
0v
1x
0y
1z
0{
1|
0}
1q
0i
1h
0f
1d
0c
1b
0a
1`
0_
1[
1Q
0P
1O
0M
1K
0J
1I
0H
1G
0F
1B
18
0$
1%
0'
1)
0*
1+
0,
1-
0.
12
#780000
0!
0U
0V
19
#790000
1!
1U
1V
09
0r
1s
0u
1w
0x
1y
0z
1{
0|
1p
0l
1j
0X
1i
0g
1e
0d
1c
0b
1a
0`
1\
0A
1P
0N
1L
0K
1J
0I
1H
0G
1C
03
1$
0&
1(
0)
1*
0+
1,
0-
11
#800000
0!
0U
0V
19
#810000
1!
1U
1V
09
0'!
1&!
1r
0t
1v
0w
1x
0y
1z
0{
1o
0q
1l
1X
0h
1f
0e
1d
0c
1b
0a
1]
0[
0Q
1R
1A
0O
1M
0L
1K
0J
1I
0H
1D
0B
08
17
13
0%
1'
0(
1)
0*
1+
0,
10
02
#820000
0!
0U
0V
19
#830000
1!
1U
1V
09
1'!
0s
1u
0v
1w
0x
1y
0z
1n
0p
1q
0l
1k
0j
0i
1g
0f
1e
0d
1c
0b
1^
0\
1[
1Q
0P
1N
0M
1L
0K
1J
0I
1E
0C
1B
18
0$
1&
0'
1(
0)
1*
0+
1/
01
12
#840000
0!
0U
0V
19
#850000
1!
1U
1V
09
0'!
1%!
0&!
0r
1t
0u
1v
0w
1x
0y
1}
0o
1p
1l
0X
1h
0g
1f
0e
1d
0c
1_
0]
1\
0Q
1S
0R
0A
1O
0N
1M
0L
1K
0J
1F
0D
1C
08
16
07
03
1%
0&
1'
0(
1)
0*
1.
00
11
#860000
0!
0U
0V
19
#870000
1!
1U
1V
09
1'!
1s
0t
1u
0v
1w
0x
1|
0n
1o
0q
0l
0k
1i
0h
1g
0f
1e
0d
1`
0^
1]
0[
1Q
1P
0O
1N
0M
1L
0K
1G
0E
1D
0B
18
1$
0%
1&
0'
1(
0)
1-
0/
10
02
1m
1@
14
#880000
0!
0U
0V
19
#890000
1!
1U
1V
09
0'!
0%!
1r
0s
1t
0u
1v
0w
1{
0}
1n
0p
1l
1X
0i
1h
0g
1f
0e
1a
0_
1^
0\
0Q
0S
1A
0P
1O
0N
1M
0L
1H
0F
1E
0C
08
06
13
0$
1%
0&
1'
0(
1,
0.
1/
01
0m
0@
04
#900000
0!
0U
0V
19
#910000
1!
1U
1V
09
1'!
0r
1s
0t
1u
0v
1z
0|
1}
0o
1q
0l
1j
0X
1i
0h
1g
0f
1b
0`
1_
0]
1[
1Q
0A
1P
0O
1N
0M
1I
0G
1F
0D
1B
18
03
1$
0%
1&
0'
1+
0-
1.
00
12
#920000
0!
0U
0V
19
#930000
1!
1U
1V
09
0'!
1&!
1r
0s
1t
0u
1y
0{
1|
0n
1p
0q
1l
1X
0i
1h
0g
1c
0a
1`
0^
1\
0[
0Q
1R
1A
0P
1O
0N
1J
0H
1G
0E
1C
0B
08
17
13
0$
1%
0&
1*
0,
1-
0/
11
02
#940000
0!
0U
0V
19
#950000
1!
1U
1V
09
1'!
0r
1s
0t
1x
0z
1{
0}
1o
0p
1q
0l
0X
1i
0h
1d
0b
1a
0_
1]
0\
1[
1Q
0A
1P
0O
1K
0I
1H
0F
1D
0C
1B
18
03
1$
0%
1)
0+
1,
0.
10
01
12
#960000
0!
0U
0V
19
#970000
1!
1U
1V
09
0'!
1r
0s
1w
0y
1z
0|
1n
0o
1p
0q
1l
1X
0i
1e
0c
1b
0`
1^
0]
1\
0[
0Q
1A
0P
1L
0J
1I
0G
1E
0D
1C
0B
08
13
0$
1(
0*
1+
0-
1/
00
11
02
#980000
0!
0U
0V
19
#990000
1!
1U
1V
09
1'!
0r
1v
0x
1y
0{
1}
0n
1o
0p
1q
0l
0X
1f
0d
1c
0a
1_
0^
1]
0\
1[
1Q
0A
1M
0K
1J
0H
1F
0E
1D
0C
1B
18
03
1'
0)
1*
0,
1.
0/
10
01
12
