ins/TEST/clk_div_test/simulation/qsim/main.msim.vcd
$comment
	File created using the following command:
		vcd file main.msim.vcd -direction
$end
$date
	Sun Nov 07 19:23:16 2021
$end
$version
	ModelSim Version 10.1d
$end
$timescale
	1ps
$end
$scope module main_vlg_vec_tst $end
$var reg 1 ! clk $end
$var reg 1 " rst_n $end
$var wire 1 # clk_div $end
$var wire 1 $ sampler $end
$scope module i1 $end
$var wire 1 % gnd $end
$var wire 1 & vcc $end
$var wire 1 ' unknown $end
$var tri1 1 ( devclrn $end
$var tri1 1 ) devpor $end
$var tri1 1 * devoe $end
$var wire 1 + clk_div~output_o $end
$var wire 1 , clk~input_o $end
$var wire 1 - clk~inputclkctrl_outclk $end
$var wire 1 . U1|Add0~0_combout $end
$var wire 1 / U1|Add0~3 $end
$var wire 1 0 U1|Add0~4_combout $end
$var wire 1 1 rst_n~input_o $end
$var wire 1 2 rst_n~inputclkctrl_outclk $end
$var wire 1 3 U1|Add0~5 $end
$var wire 1 4 U1|Add0~6_combout $end
$var wire 1 5 U1|Add0~7 $end
$var wire 1 6 U1|Add0~8_combout $end
$var wire 1 7 U1|Add0~9 $end
$var wire 1 8 U1|Add0~10_combout $end
$var wire 1 9 U1|Add0~11 $end
$var wire 1 : U1|Add0~12_combout $end
$var wire 1 ; U1|Add0~13 $end
$var wire 1 < U1|Add0~14_combout $end
$var wire 1 = U1|Add0~15 $end
$var wire 1 > U1|Add0~16_combout $end
$var wire 1 ? U1|Add0~17 $end
$var wire 1 @ U1|Add0~18_combout $end
$var wire 1 A U1|Add0~19 $end
$var wire 1 B U1|Add0~20_combout $end
$var wire 1 C U1|Add0~21 $end
$var wire 1 D U1|Add0~22_combout $end
$var wire 1 E U1|Add0~23 $end
$var wire 1 F U1|Add0~24_combout $end
$var wire 1 G U1|Add0~25 $end
$var wire 1 H U1|Add0~26_combout $end
$var wire 1 I U1|Add0~27 $end
$var wire 1 J U1|Add0~28_combout $end
$var wire 1 K U1|Add0~29 $end
$var wire 1 L U1|Add0~30_combout $end
$var wire 1 M U1|Equal0~5_combout $end
$var wire 1 N U1|Equal0~6_combout $end
$var wire 1 O U1|Equal0~7_combout $end
$var wire 1 P U1|Equal0~8_combout $end
$var wire 1 Q U1|Add0~31 $end
$var wire 1 R U1|Add0~32_combout $end
$var wire 1 S U1|Add0~33 $end
$var wire 1 T U1|Add0~34_combout $end
$var wire 1 U U1|Add0~35 $end
$var wire 1 V U1|Add0~36_combout $end
$var wire 1 W U1|Add0~37 $end
$var wire 1 X U1|Add0~38_combout $end
$var wire 1 Y U1|Equal0~3_combout $end
$var wire 1 Z U1|Add0~39 $end
$var wire 1 [ U1|Add0~40_combout $end
$var wire 1 \ U1|Add0~41 $end
$var wire 1 ] U1|Add0~42_combout $end
$var wire 1 ^ U1|Add0~43 $end
$var wire 1 _ U1|Add0~44_combout $end
$var wire 1 ` U1|Add0~45 $end
$var wire 1 a U1|Add0~46_combout $end
$var wire 1 b U1|Add0~47 $end
$var wire 1 c U1|Add0~48_combout $end
$var wire 1 d U1|Add0~49 $end
$var wire 1 e U1|Add0~50_combout $end
$var wire 1 f U1|Add0~51 $end
$var wire 1 g U1|Add0~52_combout $end
$var wire 1 h U1|Add0~53 $end
$var wire 1 i U1|Add0~54_combout $end
$var wire 1 j U1|Equal0~1_combout $end
$var wire 1 k U1|Add0~55 $end
$var wire 1 l U1|Add0~56_combout $end
$var wire 1 m U1|Add0~57 $end
$var wire 1 n U1|Add0~58_combout $end
$var wire 1 o U1|Add0~59 $end
$var wire 1 p U1|Add0~60_combout $end
$var wire 1 q U1|Add0~61 $end
$var wire 1 r U1|Add0~62_combout $end
$var wire 1 s U1|Equal0~0_combout $end
$var wire 1 t U1|Equal0~2_combout $end
$var wire 1 u U1|Equal0~4_combout $end
$var wire 1 v U1|Equal0~9_combout $end
$var wire 1 w U1|tmp_in[0]~1_combout $end
$var wire 1 x U1|Add0~1 $end
$var wire 1 y U1|Add0~2_combout $end
$var wire 1 z U1|tmp_in[1]~0_combout $end
$var wire 1 { U1|tmp_clk~0_combout $end
$var wire 1 | U1|tmp_clk~q $end
$var wire 1 } U1|cnt [31] $end
$var wire 1 ~ U1|cnt [30] $end
$var wire 1 !! U1|cnt [29] $end
$var wire 1 "! U1|cnt [28] $end
$var wire 1 #! U1|cnt [27] $end
$var wire 1 $! U1|cnt [26] $end
$var wire 1 %! U1|cnt [25] $end
$var wire 1 &! U1|cnt [24] $end
$var wire 1 '! U1|cnt [23] $end
$var wire 1 (! U1|cnt [22] $end
$var wire 1 )! U1|cnt [21] $end
$var wire 1 *! U1|cnt [20] $end
$var wire 1 +! U1|cnt [19] $end
$var wire 1 ,! U1|cnt [18] $end
$var wire 1 -! U1|cnt [17] $end
$var wire 1 .! U1|cnt [16] $end
$var wire 1 /! U1|cnt [15] $end
$var wire 1 0! U1|cnt [14] $end
$var wire 1 1! U1|cnt [13] $end
$var wire 1 2! U1|cnt [12] $end
$var wire 1 3! U1|cnt [11] $end
$var wire 1 4! U1|cnt [10] $end
$var wire 1 5! U1|cnt [9] $end
$var wire 1 6! U1|cnt [8] $end
$var wire 1 7! U1|cnt [7] $end
$var wire 1 8! U1|cnt [6] $end
$var wire 1 9! U1|cnt [5] $end
$var wire 1 :! U1|cnt [4] $end
$var wire 1 ;! U1|cnt [3] $end
$var wire 1 <! U1|cnt [2] $end
$var wire 1 =! U1|cnt [1] $end
$var wire 1 >! U1|cnt [0] $end
$upscope $end
$upscope $end
$enddefinitions $end
#0
$dumpvars
0!
1"
0#
x$
0%
1&
x'
1(
1)
1*
0+
0,
0-
1.
1/
00
11
12
03
04
15
06
07
08
19
0:
0;
0<
1=
0>
0?
0@
1A
0B
0C
0D
1E
0F
0G
0H
1I
0J
0K
0L
1M
1N
1O
1P
1Q
0R
0S
0T
1U
0V
0W
0X
1Y
1Z
0[
0\
0]
1^
0_
0`
0a
1b
0c
0d
0e
1f
0g
0h
0i
1j
1k
0l
0m
0n
1o
0p
0q
0r
1s
1t
1u
1v
1w
0x
0y
0z
1{
0|
0>!
0=!
0<!
0;!
0:!
09!
08!
07!
06!
05!
04!
03!
02!
01!
00!
0/!
0.!
0-!
0,!
0+!
0*!
0)!
0(!
0'!
0&!
0%!
0$!
0#!
0"!
0!!
0~
0}
$end
#10000
1!
1,
1-
0$
1>!
1|
0P
1x
0.
0{
1+
1#
0v
1y
0w
1{
1z
#20000
0!
0,
0-
1$
#30000
1!
1,
1-
0$
1=!
0>!
0/
0y
1P
0x
1.
10
0z
1v
1/
1y
1w
0w
00
#40000
0!
0,
0-
1$
#50000
1!
1,
1-
0$
0=!
0{
1z
1w
0y
0z
#60000
0!
0,
0-
1$
#70000
1!
1,
1-
0$
1>!
0|
0P
1x
0.
1{
0+
0#
0v
1y
0w
0{
1z
#80000
0!
0,
0-
1$
#90000
1!
1,
1-
0$
1=!
0>!
0/
0y
1P
0x
1.
10
0z
1v
1/
1y
1w
0w
00
#100000
0!
0,
0-
1$
#110000
1!
1,
1-
0$
0=!
1{
1z
1w
0y
0z
#120000
0!
0,
0-
1$
#130000
1!
1,
1-
0$
1>!
1|
0P
1x
0.
0{
1+
1#
0v
1y
0w
1{
1z
#140000
0!
0,
0-
1$
#150000
1!
1,
1-
0$
1=!
0>!
0/
0y
1P
0x
1.
10
0z
1v
1/
1y
1w
0w
00
#160000
0!
0,
0-
1$
#170000
1!
1,
1-
0$
0=!
0{
1z
1w
0y
0z
#180000
0!
0,
0-
1$
#190000
1!
1,
1-
0$
1>!
0|
0P
1x
0.
1{
0+
0#
0v
1y
0w
0{
1z
#200000
0!
0,
0-
1$
#210000
1!
1,
1-
0$
1=!
0>!
0/
0y
1P
0x
1.
10
0z
1v
1/
1y
1w
0w
00
#220000
0!
0,
0-
1$
#230000
1!
1,
1-
0$
0=!
1{
1z
1w
0y
0z
#240000
0!
0,
0-
1$
#250000
1!
1,
1-
0$
1>!
1|
0P
1x
0.
0{
1+
1#
0v
1y
0w
1{
1z
#260000
0!
0,
0-
1$
#270000
1!
1,
1-
0$
1=!
0>!
0/
0y
1P
0x
1.
10
0z
1v
1/
1y
1w
0w
00
#280000
0!
0,
0-
1$
#290000
1!
1,
1-
0$
0=!
0{
1z
1w
0y
0z
#300000
0!
0,
0-
1$
#310000
1!
1,
1-
0$
1>!
0|
0P
1x
0.
1{
0+
0#
0v
1y
0w
0{
1z
#320000
0!
0,
0-
1$
#330000
1!
1,
1-
0$
1=!
0>!
0/
0y
1P
0x
1.
10
0z
1v
1/
1y
1w
0w
00
#340000
0!
0,
0-
1$
#350000
1!
1,
1-
0$
0=!
1{
1z
1w
0y
0z
#360000
0!
0,
0-
1$
#370000
1!
1,
1-
0$
1>!
1|
0P
1x
0.
0{
1+
1#
0v
1y
0w
1{
1z
#380000
0!
0,
0-
1$
#390000
1!
1,
1-
0$
1=!
0>!
0/
0y
1P
0x
1.
10
0z
1v
1/
1y
1w
0w
00
#400000
0!
0,
0-
1$
#410000
1!
1,
1-
0$
0=!
0{
1z
1w
0y
0z
#420000
0!
0,
0-
1$
#430000
1!
1,
1-
0$
1>!
0|
0P
1x
0.
1{
0+
0#
0v
1y
0w
0{
1z
#440000
0!
0,
0-
1$
#450000
1!
1,
1-
0$
1=!
0>!
0/
0y
1P
0x
1.
10
0z
1v
1/
1y
1w
0w
00
#460000
0!
0,
0-
1$
#470000
1!
1,
1-
0$
0=!
1{
1z
1w
0y
0z
#480000
0!
0,
0-
1$
#490000
1!
1,
1-
0$
1>!
1|
0P
1x
0.
0{
1+
1#
0v
1y
0w
1{
1z
#500000
0!
0,
0-
1$
#510000
1!
1,
1-
0$
1=!
0>!
0/
0y
1P
0x
1.
10
0z
1v
1/
1y
1w
0w
00
#520000
0!
0,
0-
1$
#530000
1!
1,
1-
0$
0=!
0{
1z
1w
0y
0z
#540000
0!
0,
0-
1$
#550000
1!
1,
1-
0$
1>!
0|
0P
1x
0.
1{
0+
0#
0v
1y
0w
0{
1z
#560000
0!
0,
0-
1$
#570000
1!
1,
1-
0$
1=!
0>!
0/
0y
1P
0x
1.
10
0z
1v
1/
1y
1w
0w
00
#580000
0!
0,
0-
1$
#590000
1!
1,
1-
0$
0=!
1{
1z
1w
0y
0z
#600000
0!
0,
0-
1$
#610000
1!
1,
1-
0$
1>!
1|
0P
1x
0.
0{
1+
1#
0v
1y
0w
1{
1z
#620000
0!
0,
0-
1$
#630000
1!
1,
1-
0$
1=!
0>!
0/
0y
1P
0x
1.
10
0z
1v
1/
1y
1w
0w
00
#640000
0!
0,
0-
1$
#650000
1!
1,
1-
0$
0=!
0{
1z
1w
0y
0z
#660000
0!
0,
0-
1$
#670000
1!
1,
1-
0$
1>!
0|
0P
1x
0.
1{
0+
0#
0v
1y
0w
0{
1z
#680000
0!
0,
0-
1$
#690000
1!
1,
1-
0$
1=!
0>!
0/
0y
1P
0x
1.
10
0z
1v
1/
1y
1w
0w
00
#700000
0!
0,
0-
1$
#710000
1!
1,
1-
0$
0=!
1{
1z
1w
0y
0z
#720000
0!
0,
0-
1$
#730000
1!
1,
1-
0$
1>!
1|
0P
1x
0.
0{
1+
1#
0v
1y
0w
1{
1z
#740000
0!
0,
0-
1$
#750000
1!
1,
1-
0$
1=!
0>!
0/
0y
1P
0x
1.
10
0z
1v
1/
1y
1w
0w
00
#760000
0!
0,
0-
1$
#770000
1!
1,
1-
0$
0=!
0{
1z
1w
0y
0z
#780000
0!
0,
0-
1$
#790000
1!
1,
1-
0$
1>!
0|
0P
1x
0.
1{
0+
0#
0v
1y
0w
0{
1z
#800000
0!
0,
0-
1$
#810000
1!
1,
1-
0$
1=!
0>!
0/
0y
1P
0x
1.
10
0z
1v
1/
1y
1w
0w
00
#820000
0!
0,
0-
1$
#830000
1!
1,
1-
0$
0=!
1{
1z
1w
0y
0z
#840000
0!
0,
0-
1$
#850000
1!
1,
1-
0$
1>!
1|
0P
1x
0.
0{
1+
1#
0v
1y
0w
1{
1z
#860000
0!
0,
0-
1$
#870000
1!
1,
1-
0$
1=!
0>!
0/
0y
1P
0x
1.
10
0z
1v
1/
1y
1w
0w
00
#880000
0!
0,
0-
1$
#890000
1!
1,
1-
0$
0=!
0{
1z
1w
0y
0z
#900000
0!
0,
0-
1$
#910000
1!
1,
1-
0$
1>!
0|
0P
1x
0.
1{
0+
0#
0v
1y
0w
0{
1z
#920000
0!
0,
0-
1$
#930000
1!
1,
1-
0$
1=!
0>!
0/
0y
1P
0x
1.
10
0z
1v
1/
1y
1w
0w
00
#940000
0!
0,
0-
1$
#950000
1!
1,
1-
0$
0=!
1{
1z
1w
0y
0z
#960000
0!
0,
0-
1$
#970000
1!
1,
1-
0$
1>!
1|
0P
1x
0.
0{
1+
1#
0v
1y
0w
1{
1z
#980000
0!
0,
0-
1$
#990000
1!
1,
1-
0$
1=!
0>!
0/
0y
1P
0x
1.
10
0z
1v
1/
1y
1w
0w
00
