ins/COMP/CLK_DIV/par/simulation/qsim/clk_div.msim.vcd
$comment
	File created using the following command:
		vcd file clk_div.msim.vcd -direction
$end
$date
	Sun Nov 07 18:19:52 2021
$end
$version
	ModelSim Version 10.1d
$end
$timescale
	1ps
$end
$scope module clk_div_vlg_vec_tst $end
$var reg 1 ! clk $end
$var reg 1 " rst_n $end
$var wire 1 # clk_div $end
$var wire 1 $ sampler $end
$scope module i1 $end
$var wire 1 % gnd $end
$var wire 1 & vcc $end
$var wire 1 ' unknown $end
$var tri1 1 ( devclrn $end
$var tri1 1 ) devpor $end
$var tri1 1 * devoe $end
$var wire 1 + clk_div~output_o $end
$var wire 1 , clk~input_o $end
$var wire 1 - clk~inputclkctrl_outclk $end
$var wire 1 . Add0~0_combout $end
$var wire 1 / cnt~1_combout $end
$var wire 1 0 rst_n~input_o $end
$var wire 1 1 rst_n~inputclkctrl_outclk $end
$var wire 1 2 Add0~1 $end
$var wire 1 3 Add0~2_combout $end
$var wire 1 4 Add0~3 $end
$var wire 1 5 Add0~4_combout $end
$var wire 1 6 cnt~0_combout $end
$var wire 1 7 Add0~5 $end
$var wire 1 8 Add0~6_combout $end
$var wire 1 9 Equal0~9_combout $end
$var wire 1 : Add0~7 $end
$var wire 1 ; Add0~8_combout $end
$var wire 1 < Add0~9 $end
$var wire 1 = Add0~10_combout $end
$var wire 1 > Add0~11 $end
$var wire 1 ? Add0~12_combout $end
$var wire 1 @ Add0~13 $end
$var wire 1 A Add0~14_combout $end
$var wire 1 B Equal0~8_combout $end
$var wire 1 C Add0~15 $end
$var wire 1 D Add0~16_combout $end
$var wire 1 E Add0~17 $end
$var wire 1 F Add0~18_combout $end
$var wire 1 G Add0~19 $end
$var wire 1 H Add0~20_combout $end
$var wire 1 I Add0~21 $end
$var wire 1 J Add0~22_combout $end
$var wire 1 K Equal0~6_combout $end
$var wire 1 L Add0~23 $end
$var wire 1 M Add0~24_combout $end
$var wire 1 N Add0~25 $end
$var wire 1 O Add0~26_combout $end
$var wire 1 P Add0~27 $end
$var wire 1 Q Add0~28_combout $end
$var wire 1 R Add0~29 $end
$var wire 1 S Add0~30_combout $end
$var wire 1 T Equal0~5_combout $end
$var wire 1 U Equal0~7_combout $end
$var wire 1 V Add0~31 $end
$var wire 1 W Add0~32_combout $end
$var wire 1 X Add0~33 $end
$var wire 1 Y Add0~34_combout $end
$var wire 1 Z Add0~35 $end
$var wire 1 [ Add0~36_combout $end
$var wire 1 \ Add0~37 $end
$var wire 1 ] Add0~38_combout $end
$var wire 1 ^ Add0~39 $end
$var wire 1 _ Add0~40_combout $end
$var wire 1 ` Add0~41 $end
$var wire 1 a Add0~42_combout $end
$var wire 1 b Add0~43 $end
$var wire 1 c Add0~44_combout $end
$var wire 1 d Add0~45 $end
$var wire 1 e Add0~46_combout $end
$var wire 1 f Add0~47 $end
$var wire 1 g Add0~48_combout $end
$var wire 1 h Add0~49 $end
$var wire 1 i Add0~50_combout $end
$var wire 1 j Add0~51 $end
$var wire 1 k Add0~52_combout $end
$var wire 1 l Add0~53 $end
$var wire 1 m Add0~54_combout $end
$var wire 1 n Equal0~1_combout $end
$var wire 1 o Add0~55 $end
$var wire 1 p Add0~56_combout $end
$var wire 1 q Add0~57 $end
$var wire 1 r Add0~58_combout $end
$var wire 1 s Add0~59 $end
$var wire 1 t Add0~60_combout $end
$var wire 1 u Add0~61 $end
$var wire 1 v Add0~62_combout $end
$var wire 1 w Equal0~0_combout $end
$var wire 1 x Equal0~3_combout $end
$var wire 1 y Equal0~2_combout $end
$var wire 1 z Equal0~4_combout $end
$var wire 1 { Equal0~10_combout $end
$var wire 1 | clk_div~0_combout $end
$var wire 1 } clk_div~reg0_q $end
$var wire 1 ~ cnt [31] $end
$var wire 1 !! cnt [30] $end
$var wire 1 "! cnt [29] $end
$var wire 1 #! cnt [28] $end
$var wire 1 $! cnt [27] $end
$var wire 1 %! cnt [26] $end
$var wire 1 &! cnt [25] $end
$var wire 1 '! cnt [24] $end
$var wire 1 (! cnt [23] $end
$var wire 1 )! cnt [22] $end
$var wire 1 *! cnt [21] $end
$var wire 1 +! cnt [20] $end
$var wire 1 ,! cnt [19] $end
$var wire 1 -! cnt [18] $end
$var wire 1 .! cnt [17] $end
$var wire 1 /! cnt [16] $end
$var wire 1 0! cnt [15] $end
$var wire 1 1! cnt [14] $end
$var wire 1 2! cnt [13] $end
$var wire 1 3! cnt [12] $end
$var wire 1 4! cnt [11] $end
$var wire 1 5! cnt [10] $end
$var wire 1 6! cnt [9] $end
$var wire 1 7! cnt [8] $end
$var wire 1 8! cnt [7] $end
$var wire 1 9! cnt [6] $end
$var wire 1 :! cnt [5] $end
$var wire 1 ;! cnt [4] $end
$var wire 1 <! cnt [3] $end
$var wire 1 =! cnt [2] $end
$var wire 1 >! cnt [1] $end
$var wire 1 ?! cnt [0] $end
$upscope $end
$upscope $end
$enddefinitions $end
#0
$dumpvars
0!
1"
0#
x$
0%
1&
x'
1(
1)
1*
0+
0,
0-
1.
1/
10
11
02
03
14
05
06
07
08
09
1:
0;
0<
0=
1>
0?
0@
0A
1B
1C
0D
0E
0F
1G
0H
0I
0J
1K
1L
0M
0N
0O
1P
0Q
0R
0S
1T
1U
1V
0W
0X
0Y
1Z
0[
0\
0]
1^
0_
0`
0a
1b
0c
0d
0e
1f
0g
0h
0i
1j
0k
0l
0m
1n
1o
0p
0q
0r
1s
0t
0u
0v
1w
1x
1y
1z
0{
0|
0}
0?!
0>!
0=!
0<!
0;!
0:!
09!
08!
07!
06!
05!
04!
03!
02!
01!
00!
0/!
0.!
0-!
0,!
0+!
0*!
0)!
0(!
0'!
0&!
0%!
0$!
0#!
0"!
0!!
0~
$end
#10000
1!
1,
1-
0$
1?!
12
0.
13
0/
#20000
0!
0,
0-
1$
#30000
1!
1,
1-
0$
1>!
0?!
04
03
02
1.
15
14
13
1/
16
05
06
#40000
0!
0,
0-
1$
#50000
1!
1,
1-
0$
1?!
12
0.
04
03
0/
15
16
#60000
0!
0,
0-
1$
#70000
1!
1,
1-
0$
1=!
0>!
0?!
19
17
05
14
13
02
1.
1{
18
06
07
15
03
1/
1|
0/
08
#80000
0!
0,
0-
1$
#90000
1!
1,
1-
0$
0=!
1}
09
05
0|
1+
1#
0{
1|
1/
#100000
0!
0,
0-
1$
#110000
1!
1,
1-
0$
1?!
12
0.
13
0/
#120000
0!
0,
0-
1$
#130000
1!
1,
1-
0$
1>!
0?!
04
03
02
1.
15
14
13
1/
16
05
06
#140000
0!
0,
0-
1$
#150000
1!
1,
1-
0$
1?!
12
0.
04
03
0/
15
16
#160000
0!
0,
0-
1$
#170000
1!
1,
1-
0$
1=!
0>!
0?!
19
17
05
14
13
02
1.
1{
18
06
07
15
03
1/
0|
0/
08
#180000
0!
0,
0-
1$
#190000
1!
1,
1-
0$
0=!
0}
09
05
1|
0+
0#
0{
0|
1/
#200000
0!
0,
0-
1$
#210000
1!
1,
1-
0$
1?!
12
0.
13
0/
#220000
0!
0,
0-
1$
#230000
1!
1,
1-
0$
1>!
0?!
04
03
02
1.
15
14
13
1/
16
05
06
#240000
0!
0,
0-
1$
#250000
1!
1,
1-
0$
1?!
12
0.
04
03
0/
15
16
#260000
0!
0,
0-
1$
#270000
1!
1,
1-
0$
1=!
0>!
0?!
19
17
05
14
13
02
1.
1{
18
06
07
15
03
1/
1|
0/
08
#280000
0!
0,
0-
1$
#290000
1!
1,
1-
0$
0=!
1}
09
05
0|
1+
1#
0{
1|
1/
#300000
0!
0,
0-
1$
#310000
1!
1,
1-
0$
1?!
12
0.
13
0/
#320000
0!
0,
0-
1$
#330000
1!
1,
1-
0$
1>!
0?!
04
03
02
1.
15
14
13
1/
16
05
06
#340000
0!
0,
0-
1$
#350000
1!
1,
1-
0$
1?!
12
0.
04
03
0/
15
16
#360000
0!
0,
0-
1$
#370000
1!
1,
1-
0$
1=!
0>!
0?!
19
17
05
14
13
02
1.
1{
18
06
07
15
03
1/
0|
0/
08
#380000
0!
0,
0-
1$
#390000
1!
1,
1-
0$
0=!
0}
09
05
1|
0+
0#
0{
0|
1/
#400000
0!
0,
0-
1$
#410000
1!
1,
1-
0$
1?!
12
0.
13
0/
#420000
0!
0,
0-
1$
#430000
1!
1,
1-
0$
1>!
0?!
04
03
02
1.
15
14
13
1/
16
05
06
#440000
0!
0,
0-
1$
#450000
1!
1,
1-
0$
1?!
12
0.
04
03
0/
15
16
#460000
0!
0,
0-
1$
#470000
1!
1,
1-
0$
1=!
0>!
0?!
19
17
05
14
13
02
1.
1{
18
06
07
15
03
1/
1|
0/
08
#480000
0!
0,
0-
1$
#490000
1!
1,
1-
0$
0=!
1}
09
05
0|
1+
1#
0{
1|
1/
#500000
0!
0,
0-
1$
#510000
1!
1,
1-
0$
1?!
12
0.
13
0/
#520000
0!
0,
0-
1$
#530000
1!
1,
1-
0$
1>!
0?!
04
03
02
1.
15
14
13
1/
16
05
06
#540000
0!
0,
0-
1$
#550000
1!
1,
1-
0$
1?!
12
0.
04
03
0/
15
16
#560000
0!
0,
0-
1$
#570000
1!
1,
1-
0$
1=!
0>!
0?!
19
17
05
14
13
02
1.
1{
18
06
07
15
03
1/
0|
0/
08
#580000
0!
0,
0-
1$
#590000
1!
1,
1-
0$
0=!
0}
09
05
1|
0+
0#
0{
0|
1/
#600000
0!
0,
0-
1$
#610000
1!
1,
1-
0$
1?!
12
0.
13
0/
#620000
0!
0,
0-
1$
#630000
1!
1,
1-
0$
1>!
0?!
04
03
02
1.
15
14
13
1/
16
05
06
#640000
0!
0,
0-
1$
#650000
1!
1,
1-
0$
1?!
12
0.
04
03
0/
15
16
#660000
0!
0,
0-
1$
#670000
1!
1,
1-
0$
1=!
0>!
0?!
19
17
05
14
13
02
1.
1{
18
06
07
15
03
1/
1|
0/
08
#680000
0!
0,
0-
1$
#690000
1!
1,
1-
0$
0=!
1}
09
05
0|
1+
1#
0{
1|
1/
#700000
0!
0,
0-
1$
#710000
1!
1,
1-
0$
1?!
12
0.
13
0/
#720000
0!
0,
0-
1$
#730000
1!
1,
1-
0$
1>!
0?!
04
03
02
1.
15
14
13
1/
16
05
06
#740000
0!
0,
0-
1$
#750000
1!
1,
1-
0$
1?!
12
0.
04
03
0/
15
16
#760000
0!
0,
0-
1$
#770000
1!
1,
1-
0$
1=!
0>!
0?!
19
17
05
14
13
02
1.
1{
18
06
07
15
03
1/
0|
0/
08
#780000
0!
0,
0-
1$
#790000
1!
1,
1-
0$
0=!
0}
09
05
1|
0+
0#
0{
0|
1/
#800000
0!
0,
0-
1$
#810000
1!
1,
1-
0$
1?!
12
0.
13
0/
#820000
0!
0,
0-
1$
#830000
1!
1,
1-
0$
1>!
0?!
04
03
02
1.
15
14
13
1/
16
05
06
#840000
0!
0,
0-
1$
#850000
1!
1,
1-
0$
1?!
12
0.
04
03
0/
15
16
#860000
0!
0,
0-
1$
#870000
1!
1,
1-
0$
1=!
0>!
0?!
19
17
05
14
13
02
1.
1{
18
06
07
15
03
1/
1|
0/
08
#880000
0!
0,
0-
1$
#890000
1!
1,
1-
0$
0=!
1}
09
05
0|
1+
1#
0{
1|
1/
#900000
0!
0,
0-
1$
#910000
1!
1,
1-
0$
1?!
12
0.
13
0/
#920000
0!
0,
0-
1$
#930000
1!
1,
1-
0$
1>!
0?!
04
03
02
1.
15
14
13
1/
16
05
06
#940000
0!
0,
0-
1$
#950000
1!
1,
1-
0$
1?!
12
0.
04
03
0/
15
16
#960000
0!
0,
0-
1$
#970000
1!
1,
1-
0$
1=!
0>!
0?!
19
17
05
14
13
02
1.
1{
18
06
07
15
03
1/
0|
0/
08
#980000
0!
0,
0-
1$
#990000
1!
1,
1-
0$
0=!
0}
09
05
1|
0+
0#
0{
0|
1/
